^E:\NAC\BUILDS\VISUALSTUDIO2015\RESOURCES.RC
/D _DEBUG /l"0x0409" /nologo /fo"X64\DEBUG\APP\RESOURCES.RES"   E:\NAC\BUILDS\VISUALSTUDIO2015\RESOURCES.RC
^E:\NOB CONTROL\GIT\NAC\BUILDS\VISUALSTUDIO2015\RESOURCES.RC
/D _DEBUG /l"0x0409" /nologo /fo"X64\DEBUG\APP\RESOURCES.RES"   E:\NOB CONTROL\GIT\NAC\BUILDS\VISUALSTUDIO2015\RESOURCES.RC
